Mutation data of the MSK-MetTropism cohort — data_MSK • INCOMMON
…
data(data_MSK)

    Format

    A data frame with 224890 rows and 21 columns:

    Source

    MSK-MET at cBioPortal https://www.cbioportal.org/study/summary?id=msk_met_2021

    Examples

data(data_MSK)
data_MSK
#> # A tibble: 224,939 × 25
#>    sample    tumor_type purity chr     from     to ref   alt   gene  HGVSp_Short
#>    <chr>     <chr>       <dbl> <chr>  <dbl>  <dbl> <chr> <chr> <chr> <chr>      
#>  1 P-0028912 CHOL          0.3 chr17 7.58e6 7.58e6 G     A     TP53  p.R273C    
#>  2 P-0028912 CHOL          0.3 chr6  1.12e8 1.12e8 -     A     FYN   p.I490Hfs*5
#>  3 P-0028912 CHOL          0.3 chrX  5.32e7 5.32e7 G     A     KDM5C p.S169F    
#>  4 P-0003698 BLCA          0.2 chr17 7.58e6 7.58e6 C     A     TP53  p.X331_spl…
#>  5 P-0003698 BLCA          0.2 chr3  4.99e7 4.99e7 C     A     MST1R p.D951Y    
#>  6 P-0003698 BLCA          0.2 chr5  1.49e8 1.49e8 C     T     CSF1R p.V838I    
#>  7 P-0003698 BLCA          0.2 chr13 3.29e7 3.29e7 G     C     BRCA2 p.D1769H   
#>  8 P-0003698 BLCA          0.2 chr13 3.29e7 3.29e7 G     C     BRCA2 p.D1923H   
#>  9 P-0003698 BLCA          0.2 chr19 1.11e7 1.11e7 G     T     SMAR… p.G1030C   
#> 10 P-0003698 BLCA          0.2 chr22 4.15e7 4.15e7 G     A     EP300 p.X711_spl…
#> # ℹ 224,929 more rows
#> # ℹ 15 more variables: NV <int>, DP <int>, VAF <dbl>, SAMPLE_TYPE <chr>,
#> #   PRIMARY_SITE <chr>, MET_COUNT <dbl>, MET_SITE_COUNT <dbl>,
#> #   METASTATIC_SITE <chr>, SUBTYPE_ABBREVIATION <chr>, GENE_PANEL <chr>,
#> #   TMB_NONSYNONYMOUS <dbl>, FGA <dbl>, OS_MONTHS <dbl>, OS_STATUS <dbl>,
#> #   AGE_AT_DEATH <dbl>
…
