Prepare input for analyses with 'INCOMMON'. — init • INCOMMON
…
gene_roles
A data table reporting gene names and associated gene_role ("oncogene" or "TSG"). The default is taken from COSMIC Cancer Gene Census v98.

    Value

An object of class INCOMMON.

    Examples

# Example input data from the MSK-MetTropism cohort, released with the package
data(MSK_genomic_data)
print(MSK_genomic_data)
#> # A tibble: 224,939 × 10
#>    sample    chr        from        to ref   alt      DP    NV   VAF gene   
#>    <chr>     <chr>     <dbl>     <dbl> <chr> <chr> <int> <int> <dbl> <chr>  
#>  1 P-0028912 chr17   7577121   7577121 G     A       837   133 0.159 TP53   
#>  2 P-0028912 chr6  111983080 111983081 -     A       698   141 0.202 FYN    
#>  3 P-0028912 chrX   53246994  53246994 G     A       832    85 0.102 KDM5C  
#>  4 P-0003698 chr17   7576852   7576852 C     A       437   109 0.249 TP53   
#>  5 P-0003698 chr3   49933259  49933259 C     A       591    86 0.146 MST1R  
#>  6 P-0003698 chr5  149435631 149435631 C     T       360    36 0.1   CSF1R  
#>  7 P-0003698 chr13  32913797  32913797 G     C      1027   162 0.158 BRCA2  
#>  8 P-0003698 chr13  32914259  32914259 G     C      1021   182 0.178 BRCA2  
#>  9 P-0003698 chr19  11136104  11136104 G     T       573    98 0.171 SMARCA4
#> 10 P-0003698 chr22  41543840  41543840 G     A       416    45 0.108 EP300  
#> # ℹ 224,929 more rows
data(MSK_clinical_data)
print(MSK_clinical_data)
#> # A tibble: 25,659 × 15
#>    sample    tumor_type purity OS_MONTHS OS_STATUS SAMPLE_TYPE MET_COUNT
#>    <chr>     <chr>       <dbl>     <dbl>     <dbl> <chr>           <dbl>
#>  1 P-0028912 CHOL         0.3       11.4         1 Metastasis          7
#>  2 P-0003698 BLCA         0.2       64.3         0 Primary             8
#>  3 P-0003823 BLCA         0.6       65.1         0 Primary             1
#>  4 P-0004520 CHOL         0.3       66.0         0 Metastasis          5
#>  5 P-0007181 CRC          0.4       60.3         0 Metastasis         11
#>  6 P-0007779 LUAD         0.3       58.7         0 Primary             2
#>  7 P-0008019 CRC          0.75      55.5         0 Primary             1
#>  8 P-0009446 PAAD         0.1       55.7         0 Primary             3
#>  9 P-0015535 BRCA         0.3       38.9         0 Primary             1
#> 10 P-0019539 MEL          0.8       40.2         0 Primary             2
#> # ℹ 25,649 more rows
#> # ℹ 8 more variables: METASTATIC_SITE <chr>, MET_SITE_COUNT <dbl>,
#> #   PRIMARY_SITE <chr>, SUBTYPE_ABBREVIATION <chr>, GENE_PANEL <chr>,
#> #   TMB_NONSYNONYMOUS <dbl>, FGA <dbl>, AGE_AT_DEATH <dbl>
…
#> ✔ PRIMARY_SITE
#> ✔ SUBTYPE_ABBREVIATION
#> ✔ GENE_PANEL
#> ✔ TMB_NONSYNONYMOUS
#> ✔ FGA
#> ✔ AGE_AT_DEATH
#> 
#> ✔ Found 25659 matching samples
#> ✔ No mismatched samples
# An S3 method can be used to report to screen what is in the object
print(x)
#> ── [ INCOMMON ]  175054 PASS mutations across 24018 samples, with 290 mutant gen
#> ℹ Average sample purity: 0.4
#> ℹ Average sequencing depth: 649
#> # A tibble: 175,054 × 25
#>    sample    tumor_type purity chr     from     to ref   alt      DP    NV   VAF
#>    <chr>     <chr>       <dbl> <chr>  <dbl>  <dbl> <chr> <chr> <int> <int> <dbl>
#>  1 P-0028912 CHOL          0.3 chr17 7.58e6 7.58e6 G     A       837   133 0.159
#>  2 P-0028912 CHOL          0.3 chrX  5.32e7 5.32e7 G     A       832    85 0.102
#>  3 P-0003698 BLCA          0.2 chr17 7.58e6 7.58e6 C     A       437   109 0.249
#>  4 P-0003698 BLCA          0.2 chr5  1.49e8 1.49e8 C     T       360    36 0.1  
#>  5 P-0003698 BLCA          0.2 chr13 3.29e7 3.29e7 G     C      1027   162 0.158
#>  6 P-0003698 BLCA          0.2 chr13 3.29e7 3.29e7 G     C      1021   182 0.178
#>  7 P-0003698 BLCA          0.2 chr19 1.11e7 1.11e7 G     T       573    98 0.171
#>  8 P-0003698 BLCA          0.2 chr22 4.15e7 4.15e7 G     A       416    45 0.108
#>  9 P-0003698 BLCA          0.2 chrX  4.49e7 4.49e7 C     T       730   194 0.266
#> 10 P-0003823 BLCA          0.6 chr5  1.30e6 1.30e6 G     A       218   138 0.633
#> # ℹ 175,044 more rows
#> # ℹ 14 more variables: gene <chr>, gene_role <chr>, OS_MONTHS <dbl>,
#> #   OS_STATUS <dbl>, SAMPLE_TYPE <chr>, MET_COUNT <dbl>, METASTATIC_SITE <chr>,
#> #   MET_SITE_COUNT <dbl>, PRIMARY_SITE <chr>, SUBTYPE_ABBREVIATION <chr>,
#> #   GENE_PANEL <chr>, TMB_NONSYNONYMOUS <dbl>, FGA <dbl>, AGE_AT_DEATH <dbl>
…
