Classify karyotype and multiplicity • TAPACLOTH
…
Example

In the following example, the classification task is run using both
the Binomial and Beta-Binomial models - do appreciate the difference
across the width of the acceptance regions of each class.

The input must be prepared using function init:

input = init(mutations = example_data$data,
             sample = example_data$sample,
             purity = example_data$purity,
             gene_roles = cancer_gene_census)
print(input)
#> ── [ TAPACLOTH ]  Input data for sample 0009b464-b376-4fbc-8a56-da538269a02f, wi
#> # A tibble: 25 × 10
#>    chr        from        to ref   alt      NV    DP   VAF gene   gene_role     
#>    <chr>     <dbl>     <dbl> <chr> <chr> <dbl> <dbl> <dbl> <chr>  <chr>         
#>  1 chr10 114879306 114879306 G     C        30    45 0.667 TCF7L2 oncogene, fus…
#>  2 chr14  30159463  30159463 G     A         7    25 0.28  PRKD1  fusion        
#>  3 chr14  30203217  30203217 G     C         3    25 0.12  PRKD1  fusion        
#>  4 chr14  30332623  30332623 T     A         9    48 0.188 PRKD1  fusion        
#>  5 chr14  81536104  81536104 T     C        17    54 0.315 TSHR   oncogene      
#>  6 chr16  72916293  72916293 A     G        17    37 0.459 ZFHX3  TSG           
#>  7 chr16  72960833  72960833 C     T        10    26 0.385 ZFHX3  TSG           
#>  8 chr17   7577058   7577058 C     A        23    26 0.885 TP53   oncogene, TSG…
#>  9 chr17  11931906  11931906 G     T        15    19 0.789 MAP2K4 oncogene, TSG 
#> 10 chr17  16076272  16076272 G     C        11    12 0.917 NCOR1  TSG           
#> # … with 15 more rows
#> # ℹ Use `print(n = ...)` to see more rows
…
out = run_classifier(
    out,
    alpha_level = 0.1,
    model = "Beta-Binomial",
    rho = 0.01
    )
#> 
#> ── TAPACLOTH beta-binomial clonality/Zygosity testing for sample 0009b464-b376-4
#> ℹ Computing null model distributions and p-values.

print(out)
#> ── [ TAPACLOTH ]  Input data for sample 0009b464-b376-4fbc-8a56-da538269a02f, wi
#> # A tibble: 25 × 10
#>    chr        from        to ref   alt      NV    DP   VAF gene   gene_role     
#>    <chr>     <dbl>     <dbl> <chr> <chr> <dbl> <dbl> <dbl> <chr>  <chr>         
#>  1 chr10 114879306 114879306 G     C        30    45 0.667 TCF7L2 oncogene, fus…
#>  2 chr14  30159463  30159463 G     A         7    25 0.28  PRKD1  fusion        
#>  3 chr14  30203217  30203217 G     C         3    25 0.12  PRKD1  fusion        
#>  4 chr14  30332623  30332623 T     A         9    48 0.188 PRKD1  fusion        
#>  5 chr14  81536104  81536104 T     C        17    54 0.315 TSHR   oncogene      
#>  6 chr16  72916293  72916293 A     G        17    37 0.459 ZFHX3  TSG           
#>  7 chr16  72960833  72960833 C     T        10    26 0.385 ZFHX3  TSG           
#>  8 chr17   7577058   7577058 C     A        23    26 0.885 TP53   oncogene, TSG…
#>  9 chr17  11931906  11931906 G     T        15    19 0.789 MAP2K4 oncogene, TSG 
#> 10 chr17  16076272  16076272 G     C        11    12 0.917 NCOR1  TSG           
#> # … with 15 more rows
#> # ℹ Use `print(n = ...)` to see more rows
#> ── [ TAPACLOTH ]  Test using binomial model  with significance level 0.1 ───────
#> # A tibble: 200 × 12
#>    id          NV    DP   VAF gene  gene_…¹ karyo…² multi…³   l_a   r_a   pvalue
#>    <chr>    <dbl> <dbl> <dbl> <chr> <chr>   <chr>     <int> <int> <int>    <dbl>
#>  1 chr10:1…    30    45 0.667 TCF7… oncoge… 1:0           1    32    40 4.23e- 2
#>  2 chr10:1…    30    45 0.667 TCF7… oncoge… 1:1           1    15    25 3.82e- 3
#>  3 chr10:1…    30    45 0.667 TCF7… oncoge… 2:0           1    15    25 3.82e- 3
#>  4 chr10:1…    30    45 0.667 TCF7… oncoge… 2:0           2    37    43 9.42e- 5
#>  5 chr10:1…    30    45 0.667 TCF7… oncoge… 2:1           1     9    19 7.19e- 7
#>  6 chr10:1…    30    45 0.667 TCF7… oncoge… 2:1           2    23    33 5.42e- 1
#>  7 chr10:1…    30    45 0.667 TCF7… oncoge… 2:2           1     6    15 9.58e-10
#>  8 chr10:1…    30    45 0.667 TCF7… oncoge… 2:2           2    16    26 1.04e- 2
#>  9 chr14:3…     7    25 0.28  PRKD1 fusion  1:0           1    17    23 4.81e- 8
#> 10 chr14:3…     7    25 0.28  PRKD1 fusion  1:1           1     7    15 1.11e- 1
#> # … with 190 more rows, 1 more variable: outcome <lgl>, and abbreviated
#> #   variable names ¹​gene_role, ²​karyotype, ³​multiplicity
#> # ℹ Use `print(n = ...)` to see more rows, and `colnames()` to see all variable names
#> ── [ TAPACLOTH ]  Test using beta-binomial model  with overdispersion parameter
#> # A tibble: 200 × 12
#>    id          NV    DP   VAF gene  gene_…¹ karyo…² multi…³   l_a   r_a   pvalue
#>    <chr>    <dbl> <dbl> <dbl> <chr> <chr>   <chr>     <int> <int> <int>    <dbl>
#>  1 chr10:1…    30    45 0.667 TCF7… oncoge… 1:0           1    32    40 4.23e- 2
#>  2 chr10:1…    30    45 0.667 TCF7… oncoge… 1:1           1    15    25 3.82e- 3
#>  3 chr10:1…    30    45 0.667 TCF7… oncoge… 2:0           1    15    25 3.82e- 3
#>  4 chr10:1…    30    45 0.667 TCF7… oncoge… 2:0           2    37    43 9.42e- 5
#>  5 chr10:1…    30    45 0.667 TCF7… oncoge… 2:1           1     9    19 7.19e- 7
#>  6 chr10:1…    30    45 0.667 TCF7… oncoge… 2:1           2    23    33 5.42e- 1
#>  7 chr10:1…    30    45 0.667 TCF7… oncoge… 2:2           1     6    15 9.58e-10
#>  8 chr10:1…    30    45 0.667 TCF7… oncoge… 2:2           2    16    26 1.04e- 2
#>  9 chr14:3…     7    25 0.28  PRKD1 fusion  1:0           1    17    23 4.81e- 8
#> 10 chr14:3…     7    25 0.28  PRKD1 fusion  1:1           1     7    15 1.11e- 1
#> # … with 190 more rows, 1 more variable: outcome <lgl>, and abbreviated
#> #   variable names ¹​gene_role, ²​karyotype, ³​multiplicity
#> # ℹ Use `print(n = ...)` to see more rows, and `colnames()` to see all variable names
…
