2. Survival analysis of the MSK-MetTropism Cohort • INCOMMON
…
print(x)
#> ── [ INCOMMON ]  6779 PASS mutations across 1740 samples, with 276 mutant genes
#> ℹ Average sample purity: 0.26
#> ℹ Average sequencing depth: 623
#> # A tibble: 6,779 × 25
#>    sample   tumor_type purity chr     from     to ref   alt      DP    NV    VAF
#>    <chr>    <chr>       <dbl> <chr>  <dbl>  <dbl> <chr> <chr> <int> <int>  <dbl>
#>  1 P-00094… PAAD          0.1 chr12 2.54e7 2.54e7 C     T       847    82 0.0968
#>  2 P-00094… PAAD          0.1 chr17 7.58e6 7.58e6 C     T       709    91 0.128 
#>  3 P-00215… PAAD          0.4 chr12 2.54e7 2.54e7 C     T      1048   322 0.307 
#>  4 P-00215… PAAD          0.4 chr17 7.57e6 7.57e6 G     A       942   384 0.408 
#>  5 P-00215… PAAD          0.4 chr1  2.71e7 2.71e7 -     G       833   289 0.347 
#>  6 P-00215… PAAD          0.4 chr1  1.13e7 1.13e7 T     C      1115   300 0.269 
#>  7 P-00215… PAAD          0.4 chr3  1.87e8 1.87e8 G     A      1362   847 0.622 
#>  8 P-00034… PAAD          0.2 chr12 2.54e7 2.54e7 C     T       533    56 0.105 
#>  9 P-00034… PAAD          0.2 chr17 7.58e6 7.58e6 C     A       351    56 0.160 
#> 10 P-00245… PAAD          0.2 chr12 2.54e7 2.54e7 C     G       938   155 0.165 
#> # ℹ 6,769 more rows
#> # ℹ 14 more variables: gene <chr>, gene_role <chr>, OS_MONTHS <dbl>,
#> #   OS_STATUS <dbl>, SAMPLE_TYPE <chr>, MET_COUNT <dbl>, METASTATIC_SITE <chr>,
#> #   MET_SITE_COUNT <dbl>, PRIMARY_SITE <chr>, SUBTYPE_ABBREVIATION <chr>,
#> #   GENE_PANEL <chr>, TMB_NONSYNONYMOUS <dbl>, FGA <dbl>, AGE_AT_DEATH <dbl>
…
x = classify(
  x = x,
  priors = pcawg_priors,
  entropy_cutoff = 0.2,
  rho = 0.01
)

print(x)
#> ── [ INCOMMON ]  6779 PASS mutations across 1740 samples, with 276 mutant genes
#> ℹ Average sample purity: 0.26
#> ℹ Average sequencing depth: 623
#> ── [ INCOMMON ]  Classified mutations with overdispersion parameter 0.01 and ent
#> # A tibble: 6,779 × 18
#>    sample   tumor_type purity chr     from     to ref   alt      DP    NV    VAF
#>    <chr>    <chr>       <dbl> <chr>  <dbl>  <dbl> <chr> <chr> <int> <int>  <dbl>
#>  1 P-00094… PAAD          0.1 chr12 2.54e7 2.54e7 C     T       847    82 0.0968
#>  2 P-00094… PAAD          0.1 chr17 7.58e6 7.58e6 C     T       709    91 0.128 
#>  3 P-00215… PAAD          0.4 chr12 2.54e7 2.54e7 C     T      1048   322 0.307 
#>  4 P-00215… PAAD          0.4 chr17 7.57e6 7.57e6 G     A       942   384 0.408 
#>  5 P-00215… PAAD          0.4 chr1  2.71e7 2.71e7 -     G       833   289 0.347 
#>  6 P-00215… PAAD          0.4 chr1  1.13e7 1.13e7 T     C      1115   300 0.269 
#>  7 P-00215… PAAD          0.4 chr3  1.87e8 1.87e8 G     A      1362   847 0.622 
#>  8 P-00034… PAAD          0.2 chr12 2.54e7 2.54e7 C     T       533    56 0.105 
#>  9 P-00034… PAAD          0.2 chr17 7.58e6 7.58e6 C     A       351    56 0.160 
#> 10 P-00245… PAAD          0.2 chr12 2.54e7 2.54e7 C     G       938   155 0.165 
#> # ℹ 6,769 more rows
#> # ℹ 7 more variables: gene <chr>, gene_role <chr>, id <chr>, label <chr>,
#> #   state <chr>, posterior <dbl>, entropy <dbl>
…
