3. Genome Interpreter • INCOMMON
…
print(x)
#> ── [ INCOMMON ]  7194 PASS mutations across 1880 samples, with 287 mutant genes
#> ℹ Average sample purity: 0.4
#> ℹ Average sequencing depth: 613
#> # A tibble: 7,194 × 27
#>    sample   tumor_type purity chr     from     to ref   alt      DP    NV    VAF
#>    <chr>    <chr>       <dbl> <chr>  <dbl>  <dbl> <chr> <chr> <int> <int>  <dbl>
#>  1 P-00314… PRAD          0.1 chr3  1.89e8 1.89e8 A     G       527    57 0.108 
#>  2 P-00369… PRAD          0.5 chr17 4.77e7 4.77e7 A     C       580   144 0.248 
#>  3 P-00369… PRAD          0.5 chr22 4.15e7 4.15e7 G     T       363    94 0.259 
#>  4 P-00446… PRAD          0.9 chr17 7.58e6 7.58e6 C     A       397   336 0.846 
#>  5 P-00446… PRAD          0.9 chr2  4.77e7 4.77e7 AAG   -       317   123 0.388 
#>  6 P-00446… PRAD          0.9 chr4  1.88e8 1.88e8 G     A       351    19 0.0541
#>  7 P-00420… PRAD          0.4 chr8  1.29e8 1.29e8 G     C       819   162 0.198 
#>  8 P-00420… PRAD          0.4 chr2  1.98e8 1.98e8 C     A       454    27 0.0595
#>  9 P-00436… PRAD          0.6 chr10 8.97e7 8.97e7 T     G       265    65 0.245 
#> 10 P-00438… PRAD          0.4 chr3  4.13e7 4.13e7 G     T       476    53 0.111 
#> # ℹ 7,184 more rows
#> # ℹ 16 more variables: gene <chr>, gene_role <chr>, OS_MONTHS <dbl>,
#> #   OS_STATUS <dbl>, SAMPLE_TYPE <chr>, MET_COUNT <dbl>, METASTATIC_SITE <chr>,
#> #   MET_SITE_COUNT <dbl>, PRIMARY_SITE <chr>, SUBTYPE_ABBREVIATION <chr>,
#> #   GENE_PANEL <chr>, SEX <chr>, TMB_NONSYNONYMOUS <dbl>, FGA <dbl>,
#> #   AGE_AT_SEQUENCING <dbl>, RACE <chr>
…
print(x)
#> ── [ INCOMMON ]  7194 PASS mutations across 1880 samples, with 287 mutant genes
#> ℹ Average sample purity: 0.4
#> ℹ Average sequencing depth: 613
#> ── [ INCOMMON ]  Classified mutations with overdispersion parameter 0.01 and ent
#> ℹ There are:
#> • N = 3571 mutations (HMD)
#> • N = 387 mutations (LOH)
#> • N = 1346 mutations (CNLOH)
#> • N = 696 mutations (AM)
#> • N = 1194 mutations (Tier-2)
#> # A tibble: 7,194 × 18
#>    sample   tumor_type purity chr     from     to ref   alt      DP    NV    VAF
#>    <chr>    <chr>       <dbl> <chr>  <dbl>  <dbl> <chr> <chr> <int> <int>  <dbl>
#>  1 P-00314… PRAD          0.1 chr3  1.89e8 1.89e8 A     G       527    57 0.108 
#>  2 P-00369… PRAD          0.5 chr17 4.77e7 4.77e7 A     C       580   144 0.248 
#>  3 P-00369… PRAD          0.5 chr22 4.15e7 4.15e7 G     T       363    94 0.259 
#>  4 P-00446… PRAD          0.9 chr17 7.58e6 7.58e6 C     A       397   336 0.846 
#>  5 P-00446… PRAD          0.9 chr2  4.77e7 4.77e7 AAG   -       317   123 0.388 
#>  6 P-00446… PRAD          0.9 chr4  1.88e8 1.88e8 G     A       351    19 0.0541
#>  7 P-00420… PRAD          0.4 chr8  1.29e8 1.29e8 G     C       819   162 0.198 
#>  8 P-00420… PRAD          0.4 chr2  1.98e8 1.98e8 C     A       454    27 0.0595
#>  9 P-00436… PRAD          0.6 chr10 8.97e7 8.97e7 T     G       265    65 0.245 
#> 10 P-00438… PRAD          0.4 chr3  4.13e7 4.13e7 G     T       476    53 0.111 
#> # ℹ 7,184 more rows
#> # ℹ 7 more variables: gene <chr>, gene_role <chr>, id <chr>, label <chr>,
#> #   state <chr>, posterior <dbl>, entropy <dbl>
…
