5. Analysis of metastatic patterns of MSK-MetTropism • INCOMMON
…
print(x)
#> ── [ INCOMMON ]  9916 PASS mutations across 2462 samples, with 286 mutant genes
#> ℹ Average sample purity: 0.42
#> ℹ Average sequencing depth: 681
#> # A tibble: 9,916 × 25
#>    sample    tumor_type purity chr     from     to ref   alt      DP    NV   VAF
#>    <chr>     <chr>       <dbl> <chr>  <dbl>  <dbl> <chr> <chr> <int> <int> <dbl>
#>  1 P-0015535 BRCA          0.3 chr3  1.79e8 1.79e8 G     A       868   167 0.192
#>  2 P-0015535 BRCA          0.3 chr17 3.79e7 3.79e7 T     C      1172   205 0.175
#>  3 P-0015535 BRCA          0.3 chr7  1.41e8 1.41e8 G     A       765   120 0.157
#>  4 P-0015535 BRCA          0.3 chr21 3.62e7 3.62e7 G     A      1006   162 0.161
#>  5 P-0015535 BRCA          0.3 chr16 6.88e7 6.88e7 C     -       774   210 0.271
#>  6 P-0015535 BRCA          0.3 chr17 1.60e7 1.60e7 C     T       764   155 0.203
#>  7 P-0015535 BRCA          0.3 chr19 1.46e7 1.46e7 G     C       544    70 0.129
#>  8 P-0007009 BRCA          0.5 chr19 4.28e7 4.28e7 G     A       852   648 0.761
#>  9 P-0007009 BRCA          0.5 chr14 1.05e8 1.05e8 -     GGCA…  1530   453 0.296
#> 10 P-0013299 BRCA          0.4 chr19 4.59e7 4.59e7 C     T      1542   180 0.117
#> # ℹ 9,906 more rows
#> # ℹ 14 more variables: gene <chr>, gene_role <chr>, OS_MONTHS <dbl>,
#> #   OS_STATUS <dbl>, SAMPLE_TYPE <chr>, MET_COUNT <dbl>, METASTATIC_SITE <chr>,
#> #   MET_SITE_COUNT <dbl>, PRIMARY_SITE <chr>, SUBTYPE_ABBREVIATION <chr>,
#> #   GENE_PANEL <chr>, TMB_NONSYNONYMOUS <dbl>, FGA <dbl>, AGE_AT_DEATH <dbl>
…
print(x)
#> ── [ INCOMMON ]  9916 PASS mutations across 2462 samples, with 286 mutant genes
#> ℹ Average sample purity: 0.42
#> ℹ Average sequencing depth: 681
#> ── [ INCOMMON ]  Classified mutations with overdispersion parameter 0.01 and ent
#> ℹ There are:
#> • N = 4147 mutations (HMD)
#> • N = 578 mutations (LOH)
#> • N = 2018 mutations (CNLOH)
#> • N = 663 mutations (AM)
#> • N = 2510 mutations (Tier-2)
#> # A tibble: 9,916 × 18
#>    sample    tumor_type purity chr     from     to ref   alt      DP    NV   VAF
#>    <chr>     <chr>       <dbl> <chr>  <dbl>  <dbl> <chr> <chr> <int> <int> <dbl>
#>  1 P-0015535 BRCA          0.3 chr3  1.79e8 1.79e8 G     A       868   167 0.192
#>  2 P-0015535 BRCA          0.3 chr17 3.79e7 3.79e7 T     C      1172   205 0.175
#>  3 P-0015535 BRCA          0.3 chr7  1.41e8 1.41e8 G     A       765   120 0.157
#>  4 P-0015535 BRCA          0.3 chr21 3.62e7 3.62e7 G     A      1006   162 0.161
#>  5 P-0015535 BRCA          0.3 chr16 6.88e7 6.88e7 C     -       774   210 0.271
#>  6 P-0015535 BRCA          0.3 chr17 1.60e7 1.60e7 C     T       764   155 0.203
#>  7 P-0015535 BRCA          0.3 chr19 1.46e7 1.46e7 G     C       544    70 0.129
#>  8 P-0007009 BRCA          0.5 chr19 4.28e7 4.28e7 G     A       852   648 0.761
#>  9 P-0007009 BRCA          0.5 chr14 1.05e8 1.05e8 -     GGCA…  1530   453 0.296
#> 10 P-0013299 BRCA          0.4 chr19 4.59e7 4.59e7 C     T      1542   180 0.117
#> # ℹ 9,906 more rows
#> # ℹ 7 more variables: gene <chr>, gene_role <chr>, id <chr>, label <chr>,
#> #   state <chr>, posterior <dbl>, entropy <dbl>
…
