Classify mutations from a targeted sequencing sample • INCOMMON
…
Given the lower depth, the number of reads with the variant \(NV\) (vertical line) for the other
mutations is compatible with multiple copy number configurations, which
are thus assigned similar posterior probabilities.

Using priors and the entropy cut-off.

The classification can be made easier by injecting prior knowledge
into the model. In function classify, the user can provide
a table as argument prior. INCOMMON provides an internal
table of prior distributions obtained from PCAWG whole-genomes:

pcawg_priors
#> # A tibble: 4,466 × 4
#>    gene  tumor_type label                 p
#>    <chr> <chr>      <chr>             <dbl>
#>  1 ALB   HCC        1N (Mutated: 1N) 0.151 
#>  2 ALB   HCC        2N (Mutated: 1N) 0.593 
#>  3 ALB   HCC        2N (Mutated: 2N) 0.0474
#>  4 ALB   HCC        3N (Mutated: 1N) 0.0727
#>  5 ALB   HCC        3N (Mutated: 2N) 0.0485
#>  6 ALB   HCC        4N (Mutated: 1N) 0.0198
#>  7 ALB   HCC        4N (Mutated: 2N) 0.0683
#>  8 APOB  HCC        1N (Mutated: 1N) 0.151 
#>  9 APOB  HCC        2N (Mutated: 1N) 0.593 
#> 10 APOB  HCC        2N (Mutated: 2N) 0.0474
#> # ℹ 4,456 more rows
…
