Purity estimates • TAPACLOTH
…
In case data are fit with a mixture of two components, we do not have any expectation on which one represents the clonal heterozygous cluster. In this case we adopt a conservative strategy and select the component that results in the closest estimate to the input purity, if available, given that they are not more distant than the input parameter eps.

Example

In this example, the input purity estimate of the cancer sample is correct, and the VAF spectrum of somatic mutations is fit using a mixture of Binomial distributions.

The input must be prepared using function init:

input = init(mutations = example_data$data,
             sample = example_data$sample,
             purity = example_data$purity,
             gene_roles = cancer_gene_census)
print(input)
#> ── [ TAPACLOTH ]  Input data for sample 0009b464-b376-4fbc-8a56-da538269a02f, wi
#> # A tibble: 25 × 10
#>    chr        from        to ref   alt      NV    DP   VAF gene   gene_role     
#>    <chr>     <dbl>     <dbl> <chr> <chr> <dbl> <dbl> <dbl> <chr>  <chr>         
#>  1 chr10 114879306 114879306 G     C        30    45 0.667 TCF7L2 oncogene, fus…
#>  2 chr14  30159463  30159463 G     A         7    25 0.28  PRKD1  fusion        
#>  3 chr14  30203217  30203217 G     C         3    25 0.12  PRKD1  fusion        
#>  4 chr14  30332623  30332623 T     A         9    48 0.188 PRKD1  fusion        
#>  5 chr14  81536104  81536104 T     C        17    54 0.315 TSHR   oncogene      
#>  6 chr16  72916293  72916293 A     G        17    37 0.459 ZFHX3  TSG           
#>  7 chr16  72960833  72960833 C     T        10    26 0.385 ZFHX3  TSG           
#>  8 chr17   7577058   7577058 C     A        23    26 0.885 TP53   oncogene, TSG…
#>  9 chr17  11931906  11931906 G     T        15    19 0.789 MAP2K4 oncogene, TSG 
#> 10 chr17  16076272  16076272 G     C        11    12 0.917 NCOR1  TSG           
#> # … with 15 more rows
#> # ℹ Use `print(n = ...)` to see more rows
…
print(out)
#> ── [ TAPACLOTH ]  Input data for sample 0009b464-b376-4fbc-8a56-da538269a02f, wi
#> # A tibble: 25 × 10
#>    chr        from        to ref   alt      NV    DP   VAF gene   gene_role     
#>    <chr>     <dbl>     <dbl> <chr> <chr> <dbl> <dbl> <dbl> <chr>  <chr>         
#>  1 chr10 114879306 114879306 G     C        30    45 0.667 TCF7L2 oncogene, fus…
#>  2 chr14  30159463  30159463 G     A         7    25 0.28  PRKD1  fusion        
#>  3 chr14  30203217  30203217 G     C         3    25 0.12  PRKD1  fusion        
#>  4 chr14  30332623  30332623 T     A         9    48 0.188 PRKD1  fusion        
#>  5 chr14  81536104  81536104 T     C        17    54 0.315 TSHR   oncogene      
#>  6 chr16  72916293  72916293 A     G        17    37 0.459 ZFHX3  TSG           
#>  7 chr16  72960833  72960833 C     T        10    26 0.385 ZFHX3  TSG           
#>  8 chr17   7577058   7577058 C     A        23    26 0.885 TP53   oncogene, TSG…
#>  9 chr17  11931906  11931906 G     T        15    19 0.789 MAP2K4 oncogene, TSG 
#> 10 chr17  16076272  16076272 G     C        11    12 0.917 NCOR1  TSG           
#> # … with 15 more rows
#> # ℹ Use `print(n = ...)` to see more rows
…
print(out)
#> ── [ TAPACLOTH ]  Input data for sample test, with purity 0.4 ──────────────────
#> # A tibble: 30 × 10
#>    chr    from    to ref   alt      NV    DP   VAF gene         gene_role
#>    <chr> <dbl> <dbl> <chr> <chr> <dbl> <dbl> <dbl> <chr>        <chr>    
#>  1 chr8   1000  1001 C     C        10   200  0.05 test gene 1  NA       
#>  2 chr19  2000  2001 A     T        12   200  0.06 test gene 2  NA       
#>  3 chr21  3000  3001 C     G        14   200  0.07 test gene 3  NA       
#>  4 chr1   4000  4001 C     A        16   200  0.08 test gene 4  NA       
#>  5 chr15  5000  5001 G     T        18   200  0.09 test gene 5  NA       
#>  6 chr1   6000  6001 C     T        20   200  0.1  test gene 6  NA       
#>  7 chr15  7000  7001 A     G        22   200  0.11 test gene 7  NA       
#>  8 chr12  8000  8001 A     C        24   200  0.12 test gene 8  NA       
#>  9 chr6   9000  9001 A     A        26   200  0.13 test gene 9  NA       
#> 10 chr8  10000 10001 G     C        28   200  0.14 test gene 10 NA       
#> # … with 20 more rows
#> # ℹ Use `print(n = ...)` to see more rows
…
