Survival analysis of the MSK-MetTropism Cohort • INCOMMON
…
In this example we perform survival analysis using INCOMMON
classification of 1742 samples from pancreatic adenocarcinoma (PAAD)
patients of the MSK-MetTropsim cohort.

data = data_MSK %>% filter(tumor_type == 'PAAD')
print(data)
#> # A tibble: 7,666 × 25
#>    sample    tumor_type purity chr     from     to ref   alt   gene  HGVSp_Short
#>    <chr>     <chr>       <dbl> <chr>  <dbl>  <dbl> <chr> <chr> <chr> <chr>      
#>  1 P-0009446 PAAD          0.1 chr12 2.54e7 2.54e7 C     T     KRAS  p.G12D     
#>  2 P-0009446 PAAD          0.1 chr17 7.58e6 7.58e6 C     T     TP53  p.R248Q    
#>  3 P-0021575 PAAD          0.4 chr12 2.54e7 2.54e7 C     T     KRAS  p.G12D     
#>  4 P-0021575 PAAD          0.4 chr17 7.57e6 7.57e6 G     A     TP53  p.R337C    
#>  5 P-0021575 PAAD          0.4 chr1  2.71e7 2.71e7 -     G     ARID… p.M890Hfs*…
#>  6 P-0021575 PAAD          0.4 chr3  1.35e8 1.35e8 C     T     EPHB1 p.T436I    
#>  7 P-0021575 PAAD          0.4 chr1  1.13e7 1.13e7 T     C     MTOR  p.R859G    
#>  8 P-0021575 PAAD          0.4 chr3  1.87e8 1.87e8 G     A     BCL6  p.T476M    
#>  9 P-0003412 PAAD          0.2 chr12 2.54e7 2.54e7 C     T     KRAS  p.G12D     
#> 10 P-0003412 PAAD          0.2 chr17 7.58e6 7.58e6 C     A     TP53  p.E224D    
#> # ℹ 7,656 more rows
#> # ℹ 15 more variables: NV <int>, DP <int>, VAF <dbl>, SAMPLE_TYPE <chr>,
#> #   PRIMARY_SITE <chr>, MET_COUNT <dbl>, MET_SITE_COUNT <dbl>,
#> #   METASTATIC_SITE <chr>, SUBTYPE_ABBREVIATION <chr>, GENE_PANEL <chr>,
#> #   TMB_NONSYNONYMOUS <dbl>, FGA <dbl>, OS_MONTHS <dbl>, OS_STATUS <dbl>,
#> #   AGE_AT_DEATH <dbl>
…
